Hands–On Data Visualization with ggplot2 – Segment 1 – Cédric Scherer
…
<br>Furthermore, it helps readers to understand from which package a function is imported from.

---

## Import the Data

Using the `read_csv()` function form the `{readr}` package, we can read the data directly from the web:

```r
url <- "https://raw.githubusercontent.com/z3tt/hands-on-ggplot2/main/data/crypto_cleaned.csv"

data <- readr::read_csv(url)

*data
## # A tibble: 2,812 x 9
##    currency     date        open  high   low close  year month  yday
##    <chr>        <date>     <dbl> <dbl> <dbl> <dbl> <dbl> <dbl> <dbl>
##  1 binance-coin 2019-12-04  15.4  15.7  15.0  15.3  2019    12   338
##  2 binance-coin 2019-12-03  15.2  15.6  15.0  15.3  2019    12   337
##  3 binance-coin 2019-12-02  15.5  15.7  15.2  15.2  2019    12   336
##  4 binance-coin 2019-12-01  15.7  15.7  15.0  15.5  2019    12   335
##  5 binance-coin 2019-11-30  16.3  16.4  15.5  15.7  2019    11   334
##  6 binance-coin 2019-11-29  15.7  16.3  15.6  16.3  2019    11   333
##  7 binance-coin 2019-11-28  16.1  16.2  15.6  15.7  2019    11   332
##  8 binance-coin 2019-11-27  15.5  16.2  14.9  16.1  2019    11   331
##  9 binance-coin 2019-11-26  15.3  15.9  15.2  15.5  2019    11   330
## 10 binance-coin 2019-11-25  15.3  15.7  14.2  15.3  2019    11   329
## # ... with 2,802 more rows
```

---

## Import the Data

Of course, one can import local files as well:

```r
data_local <- readr::read_csv("data/crypto_cleaned.csv")

data_local
## # A tibble: 2,812 x 9
##    currency     date        open  high   low close  year month  yday
##    <chr>        <date>     <dbl> <dbl> <dbl> <dbl> <dbl> <dbl> <dbl>
##  1 binance-coin 2019-12-04  15.4  15.7  15.0  15.3  2019    12   338
##  2 binance-coin 2019-12-03  15.2  15.6  15.0  15.3  2019    12   337
##  3 binance-coin 2019-12-02  15.5  15.7  15.2  15.2  2019    12   336
##  4 binance-coin 2019-12-01  15.7  15.7  15.0  15.5  2019    12   335
##  5 binance-coin 2019-11-30  16.3  16.4  15.5  15.7  2019    11   334
##  6 binance-coin 2019-11-29  15.7  16.3  15.6  16.3  2019    11   333
##  7 binance-coin 2019-11-28  16.1  16.2  15.6  15.7  2019    11   332
##  8 binance-coin 2019-11-27  15.5  16.2  14.9  16.1  2019    11   331
##  9 binance-coin 2019-11-26  15.3  15.9  15.2  15.5  2019    11   330
## 10 binance-coin 2019-11-25  15.3  15.7  14.2  15.3  2019    11   329
## # ... with 2,802 more rows
```
…
---

## Import the Data

A good workflow when working with local files is offered by the `{here}` package in combination with R projects:

```r
here::here()
## [1] "C:/Users/DataVizard/Google Drive/Work/DataViz/Teaching/2021_OReilly_Trainings/hands-on-ggplot2"

data_local <- readr::read_csv(here::here("data", "crypto_cleaned.csv"))

data_local
## # A tibble: 2,812 x 9
##    currency     date        open  high   low close  year month  yday
##    <chr>        <date>     <dbl> <dbl> <dbl> <dbl> <dbl> <dbl> <dbl>
##  1 binance-coin 2019-12-04  15.4  15.7  15.0  15.3  2019    12   338
##  2 binance-coin 2019-12-03  15.2  15.6  15.0  15.3  2019    12   337
##  3 binance-coin 2019-12-02  15.5  15.7  15.2  15.2  2019    12   336
##  4 binance-coin 2019-12-01  15.7  15.7  15.0  15.5  2019    12   335
##  5 binance-coin 2019-11-30  16.3  16.4  15.5  15.7  2019    11   334
##  6 binance-coin 2019-11-29  15.7  16.3  15.6  16.3  2019    11   333
##  7 binance-coin 2019-11-28  16.1  16.2  15.6  15.7  2019    11   332
##  8 binance-coin 2019-11-27  15.5  16.2  14.9  16.1  2019    11   331
##  9 binance-coin 2019-11-26  15.3  15.9  15.2  15.5  2019    11   330
## 10 binance-coin 2019-11-25  15.3  15.7  14.2  15.3  2019    11   329
## # ... with 2,802 more rows
```
…
---

## Import the Data

... and we can turn it into a **tibble** afterwards:

```r
data <- tibble::as_tibble(data)

data
## # A tibble: 2,812 x 9
##    currency     date        open  high   low close  year month  yday
##    <chr>        <chr>      <dbl> <dbl> <dbl> <dbl> <int> <int> <int>
##  1 binance-coin 2019-12-04  15.4  15.7  15.0  15.3  2019    12   338
##  2 binance-coin 2019-12-03  15.2  15.6  15.0  15.3  2019    12   337
##  3 binance-coin 2019-12-02  15.5  15.7  15.2  15.2  2019    12   336
##  4 binance-coin 2019-12-01  15.7  15.7  15.0  15.5  2019    12   335
##  5 binance-coin 2019-11-30  16.3  16.4  15.5  15.7  2019    11   334
##  6 binance-coin 2019-11-29  15.7  16.3  15.6  16.3  2019    11   333
##  7 binance-coin 2019-11-28  16.1  16.2  15.6  15.7  2019    11   332
##  8 binance-coin 2019-11-27  15.5  16.2  14.9  16.1  2019    11   331
##  9 binance-coin 2019-11-26  15.3  15.9  15.2  15.5  2019    11   330
## 10 binance-coin 2019-11-25  15.3  15.7  14.2  15.3  2019    11   329
## # ... with 2,802 more rows
```

However, note that by default the date column is turned into type `character`.

---

## Import the Data

The `import()` function from the `{rio}` package allows to load all kind of data formats:

```r
data <- rio::import(here::here("data", "crypto_cleaned.csv"), setclass = "tbl")

data
## # A tibble: 2,812 x 9
##    currency     date        open  high   low close  year month  yday
##    <chr>        <date>     <dbl> <dbl> <dbl> <dbl> <int> <int> <int>
##  1 binance-coin 2019-12-04  15.4  15.7  15.0  15.3  2019    12   338
##  2 binance-coin 2019-12-03  15.2  15.6  15.0  15.3  2019    12   337
##  3 binance-coin 2019-12-02  15.5  15.7  15.2  15.2  2019    12   336
##  4 binance-coin 2019-12-01  15.7  15.7  15.0  15.5  2019    12   335
##  5 binance-coin 2019-11-30  16.3  16.4  15.5  15.7  2019    11   334
##  6 binance-coin 2019-11-29  15.7  16.3  15.6  16.3  2019    11   333
##  7 binance-coin 2019-11-28  16.1  16.2  15.6  15.7  2019    11   332
##  8 binance-coin 2019-11-27  15.5  16.2  14.9  16.1  2019    11   331
##  9 binance-coin 2019-11-26  15.3  15.9  15.2  15.5  2019    11   330
## 10 binance-coin 2019-11-25  15.3  15.7  14.2  15.3  2019    11   329
## # ... with 2,802 more rows
```
…
---

## Import the Data

The `import()` function from the `{rio}` package allows to load all kind of data formats:

```r
data_xlsx <- rio::import(here::here("data", "crypto_cleaned.xlsx"), setclass = "tbl")

data_xlsx
## # A tibble: 2,812 x 10
##    ...1  currency  date                 open  high   low close  year month  yday
##    <chr> <chr>     <dttm>              <dbl> <dbl> <dbl> <dbl> <dbl> <dbl> <dbl>
##  1 1     binance-~ 2019-12-04 00:00:00  15.4  15.7  15.0  15.3  2019    12   338
##  2 2     binance-~ 2019-12-03 00:00:00  15.2  15.6  15.0  15.3  2019    12   337
##  3 3     binance-~ 2019-12-02 00:00:00  15.5  15.7  15.2  15.2  2019    12   336
##  4 4     binance-~ 2019-12-01 00:00:00  15.7  15.7  15.0  15.5  2019    12   335
##  5 5     binance-~ 2019-11-30 00:00:00  16.3  16.4  15.5  15.7  2019    11   334
##  6 6     binance-~ 2019-11-29 00:00:00  15.7  16.3  15.6  16.3  2019    11   333
##  7 7     binance-~ 2019-11-28 00:00:00  16.1  16.2  15.6  15.7  2019    11   332
##  8 8     binance-~ 2019-11-27 00:00:00  15.5  16.2  14.9  16.1  2019    11   331
##  9 9     binance-~ 2019-11-26 00:00:00  15.3  15.9  15.2  15.5  2019    11   330
## 10 10    binance-~ 2019-11-25 00:00:00  15.3  15.7  14.2  15.3  2019    11   329
## # ... with 2,802 more rows
```

---

## Import the Data

We can remove the first column by using the `select()` function from the `{dplyr}` package:

```r
data_xlsx <- dplyr::select(data_xlsx, -1)
#data_xlsx <- dplyr::select(data_xlsx, currency:yday)

data_xlsx
## # A tibble: 2,812 x 9
##    currency     date                 open  high   low close  year month  yday
##    <chr>        <dttm>              <dbl> <dbl> <dbl> <dbl> <dbl> <dbl> <dbl>
##  1 binance-coin 2019-12-04 00:00:00  15.4  15.7  15.0  15.3  2019    12   338
##  2 binance-coin 2019-12-03 00:00:00  15.2  15.6  15.0  15.3  2019    12   337
##  3 binance-coin 2019-12-02 00:00:00  15.5  15.7  15.2  15.2  2019    12   336
##  4 binance-coin 2019-12-01 00:00:00  15.7  15.7  15.0  15.5  2019    12   335
##  5 binance-coin 2019-11-30 00:00:00  16.3  16.4  15.5  15.7  2019    11   334
##  6 binance-coin 2019-11-29 00:00:00  15.7  16.3  15.6  16.3  2019    11   333
##  7 binance-coin 2019-11-28 00:00:00  16.1  16.2  15.6  15.7  2019    11   332
##  8 binance-coin 2019-11-27 00:00:00  15.5  16.2  14.9  16.1  2019    11   331
##  9 binance-coin 2019-11-26 00:00:00  15.3  15.9  15.2  15.5  2019    11   330
## 10 binance-coin 2019-11-25 00:00:00  15.3  15.7  14.2  15.3  2019    11   329
## # ... with 2,802 more rows
```
…
