Hands-On DataViz with ggplot2: Segment 1: The Basics of ggplot2
…
We use cryptocurrency financial data, pulled from CoinMarketCap.com. For our purposes, we limit the data to the period 08/201712/2019 and the top 4 cryptocurrencies.

I have already prepared the data. If you want to know how, you can have a look here.

Import the Data

Using the read_csv() function form the {readr} package, we can read the data directly from the web:

url <- "https://raw.githubusercontent.com/z3tt/hands-on-ggplot2/main/data/crypto_cleaned.csv"

data <- readr::read_csv(url)

data

# A tibble: 2,812 x 9
   currency     date        open  high   low close  year month  yday
   <chr>        <date>     <dbl> <dbl> <dbl> <dbl> <dbl> <dbl> <dbl>
 1 binance-coin 2019-12-04  15.4  15.7  15.0  15.3  2019    12   338
 2 binance-coin 2019-12-03  15.2  15.6  15.0  15.3  2019    12   337
 3 binance-coin 2019-12-02  15.5  15.7  15.2  15.2  2019    12   336
 4 binance-coin 2019-12-01  15.7  15.7  15.0  15.5  2019    12   335
 5 binance-coin 2019-11-30  16.3  16.4  15.5  15.7  2019    11   334
 6 binance-coin 2019-11-29  15.7  16.3  15.6  16.3  2019    11   333
 7 binance-coin 2019-11-28  16.1  16.2  15.6  15.7  2019    11   332
 8 binance-coin 2019-11-27  15.5  16.2  14.9  16.1  2019    11   331
 9 binance-coin 2019-11-26  15.3  15.9  15.2  15.5  2019    11   330
10 binance-coin 2019-11-25  15.3  15.7  14.2  15.3  2019    11   329
# ... with 2,802 more rows

Of course, one can import local files as well:

data_local <- readr::read_csv("data/crypto_cleaned.csv")

data_local

# A tibble: 2,812 x 9
   currency     date        open  high   low close  year month  yday
   <chr>        <date>     <dbl> <dbl> <dbl> <dbl> <dbl> <dbl> <dbl>
 1 binance-coin 2019-12-04  15.4  15.7  15.0  15.3  2019    12   338
 2 binance-coin 2019-12-03  15.2  15.6  15.0  15.3  2019    12   337
 3 binance-coin 2019-12-02  15.5  15.7  15.2  15.2  2019    12   336
 4 binance-coin 2019-12-01  15.7  15.7  15.0  15.5  2019    12   335
 5 binance-coin 2019-11-30  16.3  16.4  15.5  15.7  2019    11   334
 6 binance-coin 2019-11-29  15.7  16.3  15.6  16.3  2019    11   333
 7 binance-coin 2019-11-28  16.1  16.2  15.6  15.7  2019    11   332
 8 binance-coin 2019-11-27  15.5  16.2  14.9  16.1  2019    11   331
 9 binance-coin 2019-11-26  15.3  15.9  15.2  15.5  2019    11   330
10 binance-coin 2019-11-25  15.3  15.7  14.2  15.3  2019    11   329
# ... with 2,802 more rows
…
Import the Data

The {here} Package

A good workflow when working with local files is offered by the {here} package in combination with R projects:

here::here()

[1] "C:/Users/DataVizard/Google Drive/Work/DataViz/Teaching/2021_OReilly_Trainings/hands-on-ggplot2"

data_local <- readr::read_csv(here::here("data", "crypto_cleaned.csv"))

data_local

# A tibble: 2,812 x 9
   currency     date        open  high   low close  year month  yday
   <chr>        <date>     <dbl> <dbl> <dbl> <dbl> <dbl> <dbl> <dbl>
 1 binance-coin 2019-12-04  15.4  15.7  15.0  15.3  2019    12   338
 2 binance-coin 2019-12-03  15.2  15.6  15.0  15.3  2019    12   337
 3 binance-coin 2019-12-02  15.5  15.7  15.2  15.2  2019    12   336
 4 binance-coin 2019-12-01  15.7  15.7  15.0  15.5  2019    12   335
 5 binance-coin 2019-11-30  16.3  16.4  15.5  15.7  2019    11   334
 6 binance-coin 2019-11-29  15.7  16.3  15.6  16.3  2019    11   333
 7 binance-coin 2019-11-28  16.1  16.2  15.6  15.7  2019    11   332
 8 binance-coin 2019-11-27  15.5  16.2  14.9  16.1  2019    11   331
 9 binance-coin 2019-11-26  15.3  15.9  15.2  15.5  2019    11   330
10 binance-coin 2019-11-25  15.3  15.7  14.2  15.3  2019    11   329
# ... with 2,802 more rows
…
      currency       date  open  high   low close year month yday
1 binance-coin 2019-12-04 15.35 15.69 15.01 15.28 2019    12  338
2 binance-coin 2019-12-03 15.19 15.55 15.05 15.31 2019    12  337
3 binance-coin 2019-12-02 15.51 15.71 15.15 15.19 2019    12  336
4 binance-coin 2019-12-01 15.74 15.74 15.05 15.50 2019    12  335
5 binance-coin 2019-11-30 16.26 16.37 15.54 15.72 2019    11  334
6 binance-coin 2019-11-29 15.68 16.34 15.65 16.27 2019    11  333

 and we can turn it into a tibble afterwards:

data <- tibble::as_tibble(data)

data

# A tibble: 2,812 x 9
   currency     date        open  high   low close  year month  yday
   <chr>        <chr>      <dbl> <dbl> <dbl> <dbl> <int> <int> <int>
 1 binance-coin 2019-12-04  15.4  15.7  15.0  15.3  2019    12   338
 2 binance-coin 2019-12-03  15.2  15.6  15.0  15.3  2019    12   337
 3 binance-coin 2019-12-02  15.5  15.7  15.2  15.2  2019    12   336
 4 binance-coin 2019-12-01  15.7  15.7  15.0  15.5  2019    12   335
 5 binance-coin 2019-11-30  16.3  16.4  15.5  15.7  2019    11   334
 6 binance-coin 2019-11-29  15.7  16.3  15.6  16.3  2019    11   333
 7 binance-coin 2019-11-28  16.1  16.2  15.6  15.7  2019    11   332
 8 binance-coin 2019-11-27  15.5  16.2  14.9  16.1  2019    11   331
 9 binance-coin 2019-11-26  15.3  15.9  15.2  15.5  2019    11   330
10 binance-coin 2019-11-25  15.3  15.7  14.2  15.3  2019    11   329
# ... with 2,802 more rows
…
      currency       date  open  high   low close year month yday
1 binance-coin 2019-12-04 15.35 15.69 15.01 15.28 2019    12  338
2 binance-coin 2019-12-03 15.19 15.55 15.05 15.31 2019    12  337
3 binance-coin 2019-12-02 15.51 15.71 15.15 15.19 2019    12  336
4 binance-coin 2019-12-01 15.74 15.74 15.05 15.50 2019    12  335
5 binance-coin 2019-11-30 16.26 16.37 15.54 15.72 2019    11  334
6 binance-coin 2019-11-29 15.68 16.34 15.65 16.27 2019    11  333

We can turn it into a tibble afterwardsor specify it directly when importing the data set:

data <- rio::import(here::here("data", "crypto_cleaned.csv"), setclass = "tbl")

data

# A tibble: 2,812 x 9
   currency     date        open  high   low close  year month  yday
   <chr>        <date>     <dbl> <dbl> <dbl> <dbl> <int> <int> <int>
 1 binance-coin 2019-12-04  15.4  15.7  15.0  15.3  2019    12   338
 2 binance-coin 2019-12-03  15.2  15.6  15.0  15.3  2019    12   337
 3 binance-coin 2019-12-02  15.5  15.7  15.2  15.2  2019    12   336
 4 binance-coin 2019-12-01  15.7  15.7  15.0  15.5  2019    12   335
 5 binance-coin 2019-11-30  16.3  16.4  15.5  15.7  2019    11   334
 6 binance-coin 2019-11-29  15.7  16.3  15.6  16.3  2019    11   333
 7 binance-coin 2019-11-28  16.1  16.2  15.6  15.7  2019    11   332
 8 binance-coin 2019-11-27  15.5  16.2  14.9  16.1  2019    11   331
 9 binance-coin 2019-11-26  15.3  15.9  15.2  15.5  2019    11   330
10 binance-coin 2019-11-25  15.3  15.7  14.2  15.3  2019    11   329
# ... with 2,802 more rows
…
data_xlsx <- rio::import(
  here::here("data", "crypto_cleaned.xlsx"),
  setclass = "tbl"
)

data_xlsx

# A tibble: 2,812 x 10
   ...1  currency    date                 open  high   low close  year
   <chr> <chr>       <dttm>              <dbl> <dbl> <dbl> <dbl> <dbl>
 1 1     binance-co~ 2019-12-04 00:00:00  15.4  15.7  15.0  15.3  2019
 2 2     binance-co~ 2019-12-03 00:00:00  15.2  15.6  15.0  15.3  2019
 3 3     binance-co~ 2019-12-02 00:00:00  15.5  15.7  15.2  15.2  2019
 4 4     binance-co~ 2019-12-01 00:00:00  15.7  15.7  15.0  15.5  2019
 5 5     binance-co~ 2019-11-30 00:00:00  16.3  16.4  15.5  15.7  2019
 6 6     binance-co~ 2019-11-29 00:00:00  15.7  16.3  15.6  16.3  2019
 7 7     binance-co~ 2019-11-28 00:00:00  16.1  16.2  15.6  15.7  2019
 8 8     binance-co~ 2019-11-27 00:00:00  15.5  16.2  14.9  16.1  2019
 9 9     binance-co~ 2019-11-26 00:00:00  15.3  15.9  15.2  15.5  2019
10 10    binance-co~ 2019-11-25 00:00:00  15.3  15.7  14.2  15.3  2019
# ... with 2,802 more rows, and 2 more variables: month <dbl>,
#   yday <dbl>

We can remove the first column by using the select() function from the {dplyr} package:

data_xlsx <- dplyr::select(data_xlsx, -1)
#data_xlsx <- dplyr::select(data_xlsx, currency:yday)

data_xlsx

# A tibble: 2,812 x 9
   currency    date                 open  high   low close  year month
   <chr>       <dttm>              <dbl> <dbl> <dbl> <dbl> <dbl> <dbl>
 1 binance-co~ 2019-12-04 00:00:00  15.4  15.7  15.0  15.3  2019    12
 2 binance-co~ 2019-12-03 00:00:00  15.2  15.6  15.0  15.3  2019    12
 3 binance-co~ 2019-12-02 00:00:00  15.5  15.7  15.2  15.2  2019    12
 4 binance-co~ 2019-12-01 00:00:00  15.7  15.7  15.0  15.5  2019    12
 5 binance-co~ 2019-11-30 00:00:00  16.3  16.4  15.5  15.7  2019    11
 6 binance-co~ 2019-11-29 00:00:00  15.7  16.3  15.6  16.3  2019    11
 7 binance-co~ 2019-11-28 00:00:00  16.1  16.2  15.6  15.7  2019    11
 8 binance-co~ 2019-11-27 00:00:00  15.5  16.2  14.9  16.1  2019    11
 9 binance-co~ 2019-11-26 00:00:00  15.3  15.9  15.2  15.5  2019    11
10 binance-co~ 2019-11-25 00:00:00  15.3  15.7  14.2  15.3  2019    11
# ... with 2,802 more rows, and 1 more variable: yday <dbl>
…
